…
## # A tibble: 29 x 28
##    Platform NA.Sum   NA.Mean NA.Median NA.Quant.90 NA.Quant.10 EU.Sum
##      <fctr>  <dbl>     <dbl>     <dbl>       <dbl>       <dbl>  <dbl>
## 1      2600  80.64 0.7073684      0.45       1.330        0.21   4.86
## 2       3DS  86.14 0.3098561      0.11       0.543        0.00  67.97
## 3        DC   5.43 0.1872414      0.00       1.036        0.00   1.69
## 4        DS 345.01 0.3502640      0.19       0.666        0.00 184.27
## 5        GB 113.64 1.2487912      0.00       2.550        0.00  47.51
## 6       GBA 173.12 0.3652321      0.20       0.817        0.09  70.56
## 7        GC 121.76 0.3927742      0.23       0.842        0.11  35.73
## 8       GEN  19.27 1.1335294      1.00       2.382        0.00   5.52
## 9       N64 135.39 0.5571605      0.27       1.250        0.06  40.21
## 10      NES 125.84 1.3246316      0.41       2.036        0.00  21.14
## # ... with 19 more rows, and 21 more variables: EU.Mean <dbl>,
## #   EU.Median <dbl>, EU.Quant.90 <dbl>, EU.Quant.10 <dbl>, JP.Sum <dbl>,
## #   JP.Mean <dbl>, JP.Median <dbl>, JP.Quant.90 <dbl>, JP.Quant.10 <dbl>,
## #   Other.Sum <dbl>, Other.Mean <dbl>, Other.Median <dbl>,
## #   Other.Quant.90 <dbl>, Other.Quant.10 <dbl>, Global.Sum <dbl>,
## #   Global.Mean <dbl>, Global.Median <dbl>, Global.Quant.90 <dbl>,
## #   Global.Quant.10 <dbl>, Count <int>, Percent <dbl>
…
